Project 2: Data Mining, Classification, Prediction
…
SDS322E

Mining, Classification, Prediction

Jessica de Jong JLD4864

Introduction

The data-set Ive chosen contains data centered around potential heart failure in women and men. The variables in the data-set include age, sex, type of chest pain, resting blood pressure, resting ECG, MAX HR (heart rate), and whether or not the person had heart disease or not (1 or 0, respectively). The binary variable Im focusing on is the heart disease variable. There are 918 observations in this data-set, with a total of twelve variables. For my binary variable, there is 410 people without heart disease, and 508 with heart disease. I found this data-set on Kaggle.com, under health-related data-sets.

library(tidyverse)
# read your dataset
read_csv("heart.csv")

## # A tibble: 918 x 12
##      Age Sex   ChestPainType RestingBP Cholesterol FastingBS RestingECG MaxHR
##    <dbl> <chr> <chr>             <dbl>       <dbl>     <dbl> <chr>      <dbl>
##  1    40 M     ATA                 140         289         0 Normal       172
##  2    49 F     NAP                 160         180         0 Normal       156
##  3    37 M     ATA                 130         283         0 ST            98
##  4    48 F     ASY                 138         214         0 Normal       108
##  5    54 M     NAP                 150         195         0 Normal       122
##  6    39 M     NAP                 120         339         0 Normal       170
##  7    45 F     ATA                 130         237         0 Normal       170
##  8    54 M     ATA                 110         208         0 Normal       142
##  9    37 M     ASY                 140         207         0 Normal       130
## 10    48 F     ATA                 120         284         0 Normal       120
## #  with 908 more rows, and 4 more variables: ExerciseAngina <chr>,
## #   Oldpeak <dbl>, ST_Slope <chr>, HeartDisease <dbl>
…
